/home/dferrao/fst-can-interface/linuxcan/pciefd/kvpciefd.ko
/home/dferrao/fst-can-interface/linuxcan/pciefd/pciefd_hwif.o /home/dferrao/fst-can-interface/linuxcan/pciefd/altera/HAL/src/pciefd.o /home/dferrao/fst-can-interface/linuxcan/pciefd/altera/HAL/src/pciefd_packet.o /home/dferrao/fst-can-interface/linuxcan/pciefd/altera/HAL/src/pciefd_rx_fifo.o /home/dferrao/fst-can-interface/linuxcan/pciefd/altera/HAL/src/altera_avalon_epcs_flash_controller.o /home/dferrao/fst-can-interface/linuxcan/pciefd/altera/HAL/src/altera_avalon_spi.o /home/dferrao/fst-can-interface/linuxcan/pciefd/altera/HAL/src/epcs_commands.o /home/dferrao/fst-can-interface/linuxcan/pciefd/altera/HAL/src/pwm_util.o

