<?xml version="1.0" encoding="iso-8859-1"?>
<!-- Generator: Adobe Illustrator 16.0.0, SVG Export Plug-In . SVG Version: 6.00 Build 0)  -->
<!DOCTYPE svg PUBLIC "-//W3C//DTD SVG 1.1//EN" "http://www.w3.org/Graphics/SVG/1.1/DTD/svg11.dtd">
<svg version="1.1" id="Capa_1" xmlns="http://www.w3.org/2000/svg" xmlns:xlink="http://www.w3.org/1999/xlink" x="0px" y="0px"
	 width="100.787px" height="100.787px" viewBox="0 0 100.787 100.787" style="enable-background:new 0 0 100.787 100.787;"
	 xml:space="preserve">
<g>
	<g>
		<path d="M99.288,94.894H3v-90.5c0-0.829-0.672-1.5-1.5-1.5S0,3.564,0,4.394v92c0,0.828,0.672,1.5,1.5,1.5h97.787
			c0.828,0,1.5-0.672,1.5-1.5S100.116,94.894,99.288,94.894z"/>
		<path d="M68.061,52.727c-13.332,22.667-19.891,0.453-22-6C42.477,35.766,25.666,4.944,5.394,37.061v54.667h93
			C98.395,91.727,87.061,14.394,68.061,52.727z"/>
	</g>
</g>
<g>
</g>
<g>
</g>
<g>
</g>
<g>
</g>
<g>
</g>
<g>
</g>
<g>
</g>
<g>
</g>
<g>
</g>
<g>
</g>
<g>
</g>
<g>
</g>
<g>
</g>
<g>
</g>
<g>
</g>
</svg>
