<?xml version="1.0" encoding="iso-8859-1"?>
<!-- Generator: Adobe Illustrator 16.0.0, SVG Export Plug-In . SVG Version: 6.00 Build 0)  -->
<!DOCTYPE svg PUBLIC "-//W3C//DTD SVG 1.1//EN" "http://www.w3.org/Graphics/SVG/1.1/DTD/svg11.dtd">
<svg version="1.1" id="Capa_1" xmlns="http://www.w3.org/2000/svg" xmlns:xlink="http://www.w3.org/1999/xlink" x="0px" y="0px"
	 width="99.666px" height="99.666px" viewBox="0 0 99.666 99.666" style="enable-background:new 0 0 99.666 99.666;"
	 xml:space="preserve">
<g>
	<g>
		<path d="M93.166,11.333H6.5c-3.584,0-6.5,2.916-6.5,6.5v64c0,3.584,2.916,6.5,6.5,6.5h86.666c3.584,0,6.5-2.916,6.5-6.5v-64
			C99.666,14.249,96.75,11.333,93.166,11.333z M35.833,13.166h28c0.552,0,1,0.448,1,1s-0.448,1-1,1h-28c-0.552,0-1-0.448-1-1
			S35.281,13.166,35.833,13.166z M92.666,81.333H7v-63h85.666V81.333z"/>
		<path d="M80.838,78.578c0.621,0.437,1.479,0.287,1.916-0.334s0.287-1.479-0.334-1.916L61.557,61.666
			c-0.621-0.437-1.479-0.287-1.916,0.334c-0.438,0.621-0.287,1.479,0.334,1.916L80.838,78.578z"/>
		<path d="M85.523,79.409c0.326,0.685,1.147,0.975,1.832,0.648c0.686-0.328,0.976-1.148,0.648-1.834l-10.99-23.011
			c-0.326-0.685-1.147-0.975-1.832-0.647c-0.686,0.326-0.976,1.147-0.648,1.832L85.523,79.409z"/>
	</g>
</g>
<g>
</g>
<g>
</g>
<g>
</g>
<g>
</g>
<g>
</g>
<g>
</g>
<g>
</g>
<g>
</g>
<g>
</g>
<g>
</g>
<g>
</g>
<g>
</g>
<g>
</g>
<g>
</g>
<g>
</g>
</svg>
