<?xml version="1.0" encoding="iso-8859-1"?>
<!-- Generator: Adobe Illustrator 16.0.0, SVG Export Plug-In . SVG Version: 6.00 Build 0)  -->
<!DOCTYPE svg PUBLIC "-//W3C//DTD SVG 1.1//EN" "http://www.w3.org/Graphics/SVG/1.1/DTD/svg11.dtd">
<svg version="1.1" id="Capa_1" xmlns="http://www.w3.org/2000/svg" xmlns:xlink="http://www.w3.org/1999/xlink" x="0px" y="0px"
	 width="100.181px" height="100.18px" viewBox="0 0 100.181 100.18" style="enable-background:new 0 0 100.181 100.18;"
	 xml:space="preserve">
<g>
	<path d="M100.181,93.34v3H0V3.84h3v89.5H100.181z M23.821,29.752l-4-4.036l-3.551,3.52l4.001,4.036L23.821,29.752z M32.6,38.601
		l-4.793-4.833l-3.55,3.522l4.793,4.833L32.6,38.601z M47.822,61.061l13.411-15.722l15.885,20.655L69.756,63.2l-1.775,4.674
		l18.312,6.953V53.829h-5v9.392L61.433,37.4L47.546,53.679L35.521,41.552l-3.551,3.519L47.822,61.061z"/>
</g>
<g>
</g>
<g>
</g>
<g>
</g>
<g>
</g>
<g>
</g>
<g>
</g>
<g>
</g>
<g>
</g>
<g>
</g>
<g>
</g>
<g>
</g>
<g>
</g>
<g>
</g>
<g>
</g>
<g>
</g>
</svg>
