/home/dferrao/fst-can-interface/linuxcan/common/kvcommon.ko
/home/dferrao/fst-can-interface/linuxcan/common/VCanOsIf.o /home/dferrao/fst-can-interface/linuxcan/common/objbuf.o /home/dferrao/fst-can-interface/linuxcan/common/queue.o /home/dferrao/fst-can-interface/linuxcan/common/util.o /home/dferrao/fst-can-interface/linuxcan/common/softsync.o /home/dferrao/fst-can-interface/linuxcan/common/capabilities.o /home/dferrao/fst-can-interface/linuxcan/common/dlc.o /home/dferrao/fst-can-interface/linuxcan/common/ticks.o

